transcript
# vsim -c -do "run -all" work.Pipeline_MIPS 
# Start time: 18:38:24 on Nov 12,2019
# Loading work.Pipeline_MIPS
# Loading work.CLOCK
# Loading work.PC
# Loading work.PC_ADDER
# Loading work.INS_MEMORY
# Loading work.MUX_32_1
# Loading work.IF_ID_Reg
# Loading work.REG_FILE
# Loading work.JUMP_ADDRESS
# Loading work.Comparator
# Loading work.MUX_32_2
# Loading work.CONTROL
# Loading work.SIGN_EXTEND
# Loading work.BR_ADDER
# Loading work.ID_Forwarding_Unit
# Loading work.HazardDetectionUnit
# Loading work.Hazard_MUX_10_1
# Loading work.ID_EX_reg
# Loading work.ALU
# Loading work.ALU_CONTROL
# Loading work.Forwarding_Unit_EX
# Loading work.MUX_5_1
# Loading work.EX_MemReg
# Loading work.DATA_MEMORY
# Loading work.Mem_WbReg
# Loading work.stall_or_flush
# run -all
# SIZE ===           7 
# ***************** 0 *******************
#  pcOut=00000000, pcIn:00000001, instruction: 21080001 upper_mux_forward: 0 lower_mux_forward: 0***************************************
# ***************** 1 *******************
#  pcOut=00000001, pcIn:00000002, instruction: 21080001 upper_mux_forward: 0 lower_mux_forward: 0***************************************
# ***************** 0 *******************
#  pcOut=00000001, pcIn:00000002, instruction: 21080001 upper_mux_forward: 0 lower_mux_forward: 0***************************************
# ***************** 1 *******************
#  pcOut=00000002, pcIn:00000003, instruction: 21080001 upper_mux_forward: 0 lower_mux_forward: 0***************************************
# ***************** 0 *******************
#  pcOut=00000002, pcIn:00000003, instruction: 21080001 upper_mux_forward: 0 lower_mux_forward: 0***************************************
# ***************** 1 *******************
#  pcOut=00000003, pcIn:00000004, instruction: 21080001 upper_mux_forward: 2 lower_mux_forward: 2***************************************
# ***************** 0 *******************
#  pcOut=00000003, pcIn:00000004, instruction: 21080001 upper_mux_forward: 2 lower_mux_forward: 2***************************************
# ***************** 1 *******************
#  pcOut=00000004, pcIn:00000005, instruction: 21080001 upper_mux_forward: 2 lower_mux_forward: 2***************************************
# ***************** 0 *******************
#  pcOut=00000004, pcIn:00000005, instruction: 21080001 upper_mux_forward: 2 lower_mux_forward: 2***************************************
# ***************** 1 *******************
#  pcOut=00000005, pcIn:00000006, instruction: 21080001 upper_mux_forward: 2 lower_mux_forward: 2***************************************
# ***************** 0 *******************
#  pcOut=00000005, pcIn:00000006, instruction: 21080001 upper_mux_forward: 2 lower_mux_forward: 2***************************************
# ***************** 1 *******************
#  pcOut=00000006, pcIn:00000007, instruction: 21080001 upper_mux_forward: 2 lower_mux_forward: 2***************************************
# ***************** 0 *******************
#  pcOut=00000006, pcIn:00000007, instruction: xxxxxxxx upper_mux_forward: 2 lower_mux_forward: 2***************************************
# ***************** 1 *******************
#  pcOut=00000007, pcIn:00000008, instruction: xxxxxxxx upper_mux_forward: 2 lower_mux_forward: 2***************************************
# ***************** 0 *******************
#  pcOut=00000007, pcIn:00000008, instruction: xxxxxxxx upper_mux_forward: 2 lower_mux_forward: 2***************************************
# ***************** 1 *******************
#  pcOut=00000008, pcIn:00000009, instruction: xxxxxxxx upper_mux_forward: 0 lower_mux_forward: 0***************************************
# ***************** 0 *******************
#  pcOut=00000008, pcIn:00000009, instruction: xxxxxxxx upper_mux_forward: 0 lower_mux_forward: 0***************************************
# ***************** 1 *******************
#  pcOut=00000009, pcIn:0000000a, instruction: xxxxxxxx upper_mux_forward: 0 lower_mux_forward: 0***************************************
# ***************** 0 *******************
#  pcOut=00000009, pcIn:0000000a, instruction: xxxxxxxx upper_mux_forward: 0 lower_mux_forward: 0***************************************
# ***************** 1 *******************
#  pcOut=0000000a, pcIn:0000000b, instruction: xxxxxxxx upper_mux_forward: 0 lower_mux_forward: 0***************************************
# ***************** 0 *******************
#  pcOut=0000000a, pcIn:0000000b, instruction: xxxxxxxx upper_mux_forward: 0 lower_mux_forward: 0***************************************
# ***************** 1 *******************
#  pcOut=0000000b, pcIn:0000000c, instruction: xxxxxxxx upper_mux_forward: 0 lower_mux_forward: 0***************************************
# ***************** 0 *******************
#  pcOut=0000000b, pcIn:0000000c, instruction: xxxxxxxx upper_mux_forward: 0 lower_mux_forward: 0***************************************
# ***************** 1 *******************
#  pcOut=0000000c, pcIn:0000000d, instruction: xxxxxxxx upper_mux_forward: 0 lower_mux_forward: 0***************************************
# ***************** 0 *******************
#  pcOut=0000000c, pcIn:0000000d, instruction: xxxxxxxx upper_mux_forward: 0 lower_mux_forward: 0***************************************
# ***************** 1 *******************
#  pcOut=0000000d, pcIn:0000000e, instruction: xxxxxxxx upper_mux_forward: 0 lower_mux_forward: 0***************************************
# ***************** 0 *******************
#  pcOut=0000000d, pcIn:0000000e, instruction: xxxxxxxx upper_mux_forward: 0 lower_mux_forward: 0***************************************
# end_program will save the memory data and exit the verilog program 
# ** Note: $finish    : C:/Pipeline/Pipeline.v(1024)
#    Time: 837 ns  Iteration: 3  Instance: /Pipeline_MIPS/data_memory
# End time: 18:38:25 on Nov 12,2019, Elapsed time: 0:00:01
# Errors: 0, Warnings: 0
